%YAML 1.1
%TAG !u! tag:unity3d.com,2011:
--- !u!114 &11400000
MonoBehaviour:
  m_ObjectHideFlags: 0
  m_CorrespondingSourceObject: {fileID: 0}
  m_PrefabInstance: {fileID: 0}
  m_PrefabAsset: {fileID: 0}
  m_GameObject: {fileID: 0}
  m_Enabled: 1
  m_EditorHideFlags: 0
  m_Script: {fileID: 11500000, guid: 3b4dd1903ea44ae49988bbd2dd2e476a, type: 3}
  m_Name: Images
  m_EditorClassIdentifier: 
  sprites:
  - {fileID: 21300000, guid: 89b69866da9462641b92e61649bc775b, type: 3}
  - {fileID: 21300000, guid: 4fb4de6bde657504eb8936def950ac79, type: 3}
  - {fileID: 21300000, guid: 23aaf92c97cffd4498b7c34df8eafc71, type: 3}
  - {fileID: 21300000, guid: 4979854c53ecdeb418d41a895875b83a, type: 3}
  - {fileID: 21300000, guid: b35539e3e7f412f4e95f1b0ad1ba7a4c, type: 3}
  - {fileID: 21300000, guid: fd5f591d77316d24790bc83323d0b906, type: 3}
  - {fileID: 21300000, guid: 29ffb6e11518de34ea287eff7f0cedd3, type: 3}
  - {fileID: 21300000, guid: 1a581bfd2231610468a53f0c09611912, type: 3}
